('C:\\Users\\Judika\\Documents\\absentiebot\\build\\bot\\out00-PKG.pkg',
 {'BINARY': 1,
  'DATA': 1,
  'EXECUTABLE': 1,
  'EXTENSION': 1,
  'PYMODULE': 1,
  'PYSOURCE': 1,
  'PYZ': 0},
 [('out00-PYZ.pyz',
   'C:\\Users\\Judika\\Documents\\absentiebot\\build\\bot\\out00-PYZ.pyz',
   'PYZ'),
  ('struct',
   'C:\\Users\\Judika\\AppData\\Local\\Programs\\Python\\Python35-32\\lib\\struct.pyo',
   'PYMODULE'),
  ('pyimod01_os_path',
   'C:\\Users\\Judika\\AppData\\Local\\Programs\\Python\\Python35-32\\lib\\site-packages\\PyInstaller\\loader\\pyimod01_os_path.pyc',
   'PYMODULE'),
  ('pyimod02_archive',
   'C:\\Users\\Judika\\AppData\\Local\\Programs\\Python\\Python35-32\\lib\\site-packages\\PyInstaller\\loader\\pyimod02_archive.pyc',
   'PYMODULE'),
  ('pyimod03_importers',
   'C:\\Users\\Judika\\AppData\\Local\\Programs\\Python\\Python35-32\\lib\\site-packages\\PyInstaller\\loader\\pyimod03_importers.pyc',
   'PYMODULE'),
  ('pyiboot01_bootstrap',
   'C:\\Users\\Judika\\AppData\\Local\\Programs\\Python\\Python35-32\\lib\\site-packages\\PyInstaller\\loader\\pyiboot01_bootstrap.py',
   'PYSOURCE'),
  ('bot', 'C:\\Users\\Judika\\Documents\\absentiebot\\bot.py', 'PYSOURCE'),
  ('bot.exe.manifest',
   'C:\\Users\\Judika\\Documents\\absentiebot\\build\\bot\\bot.exe.manifest',
   'BINARY')],
 True,
 False,
 False)
