(['C:\\Users\\Judika\\Documents\\absentiebot\\bot.py'],
 ['C:\\Users\\Judika\\Documents\\absentiebot',
  'C:\\Users\\Judika\\Documents\\absentiebot'],
 ['codecs'],
 [],
 [],
 [],
 False,
 False,
 '3.5.1 (v3.5.1:37a07cee5969, Dec  6 2015, 01:38:48) [MSC v.1900 32 bit '
 '(Intel)]',
 [('bot', 'C:\\Users\\Judika\\Documents\\absentiebot\\bot.py', 'PYSOURCE')],
 [('ntpath',
   'C:\\Users\\Judika\\AppData\\Local\\Programs\\Python\\Python35-32\\lib\\ntpath.py',
   'PYMODULE'),
  ('_strptime',
   'C:\\Users\\Judika\\AppData\\Local\\Programs\\Python\\Python35-32\\lib\\_strptime.py',
   'PYMODULE'),
  ('stringprep',
   'C:\\Users\\Judika\\AppData\\Local\\Programs\\Python\\Python35-32\\lib\\stringprep.py',
   'PYMODULE'),
  ('_compat_pickle',
   'C:\\Users\\Judika\\AppData\\Local\\Programs\\Python\\Python35-32\\lib\\_compat_pickle.py',
   'PYMODULE'),
  ('pickle',
   'C:\\Users\\Judika\\AppData\\Local\\Programs\\Python\\Python35-32\\lib\\pickle.py',
   'PYMODULE'),
  ('__future__',
   'C:\\Users\\Judika\\AppData\\Local\\Programs\\Python\\Python35-32\\lib\\__future__.py',
   'PYMODULE'),
  ('argparse',
   'C:\\Users\\Judika\\AppData\\Local\\Programs\\Python\\Python35-32\\lib\\argparse.py',
   'PYMODULE'),
  ('difflib',
   'C:\\Users\\Judika\\AppData\\Local\\Programs\\Python\\Python35-32\\lib\\difflib.py',
   'PYMODULE'),
  ('ast',
   'C:\\Users\\Judika\\AppData\\Local\\Programs\\Python\\Python35-32\\lib\\ast.py',
   'PYMODULE'),
  ('imp',
   'C:\\Users\\Judika\\AppData\\Local\\Programs\\Python\\Python35-32\\lib\\imp.py',
   'PYMODULE'),
  ('inspect',
   'C:\\Users\\Judika\\AppData\\Local\\Programs\\Python\\Python35-32\\lib\\inspect.py',
   'PYMODULE'),
  ('os',
   'C:\\Users\\Judika\\AppData\\Local\\Programs\\Python\\Python35-32\\lib\\os.py',
   'PYMODULE'),
  ('cmd',
   'C:\\Users\\Judika\\AppData\\Local\\Programs\\Python\\Python35-32\\lib\\cmd.py',
   'PYMODULE'),
  ('bdb',
   'C:\\Users\\Judika\\AppData\\Local\\Programs\\Python\\Python35-32\\lib\\bdb.py',
   'PYMODULE'),
  ('opcode',
   'C:\\Users\\Judika\\AppData\\Local\\Programs\\Python\\Python35-32\\lib\\opcode.py',
   'PYMODULE'),
  ('dis',
   'C:\\Users\\Judika\\AppData\\Local\\Programs\\Python\\Python35-32\\lib\\dis.py',
   'PYMODULE'),
  ('codeop',
   'C:\\Users\\Judika\\AppData\\Local\\Programs\\Python\\Python35-32\\lib\\codeop.py',
   'PYMODULE'),
  ('code',
   'C:\\Users\\Judika\\AppData\\Local\\Programs\\Python\\Python35-32\\lib\\code.py',
   'PYMODULE'),
  ('glob',
   'C:\\Users\\Judika\\AppData\\Local\\Programs\\Python\\Python35-32\\lib\\glob.py',
   'PYMODULE'),
  ('shlex',
   'C:\\Users\\Judika\\AppData\\Local\\Programs\\Python\\Python35-32\\lib\\shlex.py',
   'PYMODULE'),
  ('importlib._bootstrap',
   'C:\\Users\\Judika\\AppData\\Local\\Programs\\Python\\Python35-32\\lib\\importlib\\_bootstrap.py',
   'PYMODULE'),
  ('importlib._bootstrap_external',
   'C:\\Users\\Judika\\AppData\\Local\\Programs\\Python\\Python35-32\\lib\\importlib\\_bootstrap_external.py',
   'PYMODULE'),
  ('importlib.machinery',
   'C:\\Users\\Judika\\AppData\\Local\\Programs\\Python\\Python35-32\\lib\\importlib\\machinery.py',
   'PYMODULE'),
  ('importlib.util',
   'C:\\Users\\Judika\\AppData\\Local\\Programs\\Python\\Python35-32\\lib\\importlib\\util.py',
   'PYMODULE'),
  ('importlib.abc',
   'C:\\Users\\Judika\\AppData\\Local\\Programs\\Python\\Python35-32\\lib\\importlib\\abc.py',
   'PYMODULE'),
  ('importlib',
   'C:\\Users\\Judika\\AppData\\Local\\Programs\\Python\\Python35-32\\lib\\importlib\\__init__.py',
   'PYMODULE'),
  ('pkgutil',
   'C:\\Users\\Judika\\AppData\\Local\\Programs\\Python\\Python35-32\\lib\\pkgutil.py',
   'PYMODULE'),
  ('ctypes._endian',
   'C:\\Users\\Judika\\AppData\\Local\\Programs\\Python\\Python35-32\\lib\\ctypes\\_endian.py',
   'PYMODULE'),
  ('ctypes',
   'C:\\Users\\Judika\\AppData\\Local\\Programs\\Python\\Python35-32\\lib\\ctypes\\__init__.py',
   'PYMODULE'),
  ('ctypes.wintypes',
   'C:\\Users\\Judika\\AppData\\Local\\Programs\\Python\\Python35-32\\lib\\ctypes\\wintypes.py',
   'PYMODULE'),
  ('xml',
   'C:\\Users\\Judika\\AppData\\Local\\Programs\\Python\\Python35-32\\lib\\xml\\__init__.py',
   'PYMODULE'),
  ('xml.sax.expatreader',
   'C:\\Users\\Judika\\AppData\\Local\\Programs\\Python\\Python35-32\\lib\\xml\\sax\\expatreader.py',
   'PYMODULE'),
  ('xml.sax.saxutils',
   'C:\\Users\\Judika\\AppData\\Local\\Programs\\Python\\Python35-32\\lib\\xml\\sax\\saxutils.py',
   'PYMODULE'),
  ('urllib.request',
   'C:\\Users\\Judika\\AppData\\Local\\Programs\\Python\\Python35-32\\lib\\urllib\\request.py',
   'PYMODULE'),
  ('getpass',
   'C:\\Users\\Judika\\AppData\\Local\\Programs\\Python\\Python35-32\\lib\\getpass.py',
   'PYMODULE'),
  ('nturl2path',
   'C:\\Users\\Judika\\AppData\\Local\\Programs\\Python\\Python35-32\\lib\\nturl2path.py',
   'PYMODULE'),
  ('ftplib',
   'C:\\Users\\Judika\\AppData\\Local\\Programs\\Python\\Python35-32\\lib\\ftplib.py',
   'PYMODULE'),
  ('netrc',
   'C:\\Users\\Judika\\AppData\\Local\\Programs\\Python\\Python35-32\\lib\\netrc.py',
   'PYMODULE'),
  ('http.cookiejar',
   'C:\\Users\\Judika\\AppData\\Local\\Programs\\Python\\Python35-32\\lib\\http\\cookiejar.py',
   'PYMODULE'),
  ('urllib.response',
   'C:\\Users\\Judika\\AppData\\Local\\Programs\\Python\\Python35-32\\lib\\urllib\\response.py',
   'PYMODULE'),
  ('urllib.error',
   'C:\\Users\\Judika\\AppData\\Local\\Programs\\Python\\Python35-32\\lib\\urllib\\error.py',
   'PYMODULE'),
  ('bisect',
   'C:\\Users\\Judika\\AppData\\Local\\Programs\\Python\\Python35-32\\lib\\bisect.py',
   'PYMODULE'),
  ('xml.sax',
   'C:\\Users\\Judika\\AppData\\Local\\Programs\\Python\\Python35-32\\lib\\xml\\sax\\__init__.py',
   'PYMODULE'),
  ('xml.sax.handler',
   'C:\\Users\\Judika\\AppData\\Local\\Programs\\Python\\Python35-32\\lib\\xml\\sax\\handler.py',
   'PYMODULE'),
  ('xml.sax._exceptions',
   'C:\\Users\\Judika\\AppData\\Local\\Programs\\Python\\Python35-32\\lib\\xml\\sax\\_exceptions.py',
   'PYMODULE'),
  ('xml.sax.xmlreader',
   'C:\\Users\\Judika\\AppData\\Local\\Programs\\Python\\Python35-32\\lib\\xml\\sax\\xmlreader.py',
   'PYMODULE'),
  ('xml.parsers',
   'C:\\Users\\Judika\\AppData\\Local\\Programs\\Python\\Python35-32\\lib\\xml\\parsers\\__init__.py',
   'PYMODULE'),
  ('xml.parsers.expat',
   'C:\\Users\\Judika\\AppData\\Local\\Programs\\Python\\Python35-32\\lib\\xml\\parsers\\expat.py',
   'PYMODULE'),
  ('plistlib',
   'C:\\Users\\Judika\\AppData\\Local\\Programs\\Python\\Python35-32\\lib\\plistlib.py',
   'PYMODULE'),
  ('platform',
   'C:\\Users\\Judika\\AppData\\Local\\Programs\\Python\\Python35-32\\lib\\platform.py',
   'PYMODULE'),
  ('urllib.parse',
   'C:\\Users\\Judika\\AppData\\Local\\Programs\\Python\\Python35-32\\lib\\urllib\\parse.py',
   'PYMODULE'),
  ('tempfile',
   'C:\\Users\\Judika\\AppData\\Local\\Programs\\Python\\Python35-32\\lib\\tempfile.py',
   'PYMODULE'),
  ('subprocess',
   'C:\\Users\\Judika\\AppData\\Local\\Programs\\Python\\Python35-32\\lib\\subprocess.py',
   'PYMODULE'),
  ('tty',
   'C:\\Users\\Judika\\AppData\\Local\\Programs\\Python\\Python35-32\\lib\\tty.py',
   'PYMODULE'),
  ('pydoc_data',
   'C:\\Users\\Judika\\AppData\\Local\\Programs\\Python\\Python35-32\\lib\\pydoc_data\\__init__.py',
   'PYMODULE'),
  ('pydoc_data.topics',
   'C:\\Users\\Judika\\AppData\\Local\\Programs\\Python\\Python35-32\\lib\\pydoc_data\\topics.py',
   'PYMODULE'),
  ('textwrap',
   'C:\\Users\\Judika\\AppData\\Local\\Programs\\Python\\Python35-32\\lib\\textwrap.py',
   'PYMODULE'),
  ('html.entities',
   'C:\\Users\\Judika\\AppData\\Local\\Programs\\Python\\Python35-32\\lib\\html\\entities.py',
   'PYMODULE'),
  ('html',
   'C:\\Users\\Judika\\AppData\\Local\\Programs\\Python\\Python35-32\\lib\\html\\__init__.py',
   'PYMODULE'),
  ('ipaddress',
   'C:\\Users\\Judika\\AppData\\Local\\Programs\\Python\\Python35-32\\lib\\ipaddress.py',
   'PYMODULE'),
  ('ssl',
   'C:\\Users\\Judika\\AppData\\Local\\Programs\\Python\\Python35-32\\lib\\ssl.py',
   'PYMODULE'),
  ('http.client',
   'C:\\Users\\Judika\\AppData\\Local\\Programs\\Python\\Python35-32\\lib\\http\\client.py',
   'PYMODULE'),
  ('mimetypes',
   'C:\\Users\\Judika\\AppData\\Local\\Programs\\Python\\Python35-32\\lib\\mimetypes.py',
   'PYMODULE'),
  ('socketserver',
   'C:\\Users\\Judika\\AppData\\Local\\Programs\\Python\\Python35-32\\lib\\socketserver.py',
   'PYMODULE'),
  ('http',
   'C:\\Users\\Judika\\AppData\\Local\\Programs\\Python\\Python35-32\\lib\\http\\__init__.py',
   'PYMODULE'),
  ('http.server',
   'C:\\Users\\Judika\\AppData\\Local\\Programs\\Python\\Python35-32\\lib\\http\\server.py',
   'PYMODULE'),
  ('uu',
   'C:\\Users\\Judika\\AppData\\Local\\Programs\\Python\\Python35-32\\lib\\uu.py',
   'PYMODULE'),
  ('quopri',
   'C:\\Users\\Judika\\AppData\\Local\\Programs\\Python\\Python35-32\\lib\\quopri.py',
   'PYMODULE'),
  ('email.feedparser',
   'C:\\Users\\Judika\\AppData\\Local\\Programs\\Python\\Python35-32\\lib\\email\\feedparser.py',
   'PYMODULE'),
  ('email.parser',
   'C:\\Users\\Judika\\AppData\\Local\\Programs\\Python\\Python35-32\\lib\\email\\parser.py',
   'PYMODULE'),
  ('email',
   'C:\\Users\\Judika\\AppData\\Local\\Programs\\Python\\Python35-32\\lib\\email\\__init__.py',
   'PYMODULE'),
  ('optparse',
   'C:\\Users\\Judika\\AppData\\Local\\Programs\\Python\\Python35-32\\lib\\optparse.py',
   'PYMODULE'),
  ('calendar',
   'C:\\Users\\Judika\\AppData\\Local\\Programs\\Python\\Python35-32\\lib\\calendar.py',
   'PYMODULE'),
  ('email._parseaddr',
   'C:\\Users\\Judika\\AppData\\Local\\Programs\\Python\\Python35-32\\lib\\email\\_parseaddr.py',
   'PYMODULE'),
  ('email.utils',
   'C:\\Users\\Judika\\AppData\\Local\\Programs\\Python\\Python35-32\\lib\\email\\utils.py',
   'PYMODULE'),
  ('email.errors',
   'C:\\Users\\Judika\\AppData\\Local\\Programs\\Python\\Python35-32\\lib\\email\\errors.py',
   'PYMODULE'),
  ('email.header',
   'C:\\Users\\Judika\\AppData\\Local\\Programs\\Python\\Python35-32\\lib\\email\\header.py',
   'PYMODULE'),
  ('email._policybase',
   'C:\\Users\\Judika\\AppData\\Local\\Programs\\Python\\Python35-32\\lib\\email\\_policybase.py',
   'PYMODULE'),
  ('email.base64mime',
   'C:\\Users\\Judika\\AppData\\Local\\Programs\\Python\\Python35-32\\lib\\email\\base64mime.py',
   'PYMODULE'),
  ('email.encoders',
   'C:\\Users\\Judika\\AppData\\Local\\Programs\\Python\\Python35-32\\lib\\email\\encoders.py',
   'PYMODULE'),
  ('email.charset',
   'C:\\Users\\Judika\\AppData\\Local\\Programs\\Python\\Python35-32\\lib\\email\\charset.py',
   'PYMODULE'),
  ('base64',
   'C:\\Users\\Judika\\AppData\\Local\\Programs\\Python\\Python35-32\\lib\\base64.py',
   'PYMODULE'),
  ('email._encoded_words',
   'C:\\Users\\Judika\\AppData\\Local\\Programs\\Python\\Python35-32\\lib\\email\\_encoded_words.py',
   'PYMODULE'),
  ('hashlib',
   'C:\\Users\\Judika\\AppData\\Local\\Programs\\Python\\Python35-32\\lib\\hashlib.py',
   'PYMODULE'),
  ('email.generator',
   'C:\\Users\\Judika\\AppData\\Local\\Programs\\Python\\Python35-32\\lib\\email\\generator.py',
   'PYMODULE'),
  ('email.iterators',
   'C:\\Users\\Judika\\AppData\\Local\\Programs\\Python\\Python35-32\\lib\\email\\iterators.py',
   'PYMODULE'),
  ('urllib',
   'C:\\Users\\Judika\\AppData\\Local\\Programs\\Python\\Python35-32\\lib\\urllib\\__init__.py',
   'PYMODULE'),
  ('email._header_value_parser',
   'C:\\Users\\Judika\\AppData\\Local\\Programs\\Python\\Python35-32\\lib\\email\\_header_value_parser.py',
   'PYMODULE'),
  ('email.headerregistry',
   'C:\\Users\\Judika\\AppData\\Local\\Programs\\Python\\Python35-32\\lib\\email\\headerregistry.py',
   'PYMODULE'),
  ('email.quoprimime',
   'C:\\Users\\Judika\\AppData\\Local\\Programs\\Python\\Python35-32\\lib\\email\\quoprimime.py',
   'PYMODULE'),
  ('email.contentmanager',
   'C:\\Users\\Judika\\AppData\\Local\\Programs\\Python\\Python35-32\\lib\\email\\contentmanager.py',
   'PYMODULE'),
  ('email.policy',
   'C:\\Users\\Judika\\AppData\\Local\\Programs\\Python\\Python35-32\\lib\\email\\policy.py',
   'PYMODULE'),
  ('email.message',
   'C:\\Users\\Judika\\AppData\\Local\\Programs\\Python\\Python35-32\\lib\\email\\message.py',
   'PYMODULE'),
  ('gzip',
   'C:\\Users\\Judika\\AppData\\Local\\Programs\\Python\\Python35-32\\lib\\gzip.py',
   'PYMODULE'),
  ('tarfile',
   'C:\\Users\\Judika\\AppData\\Local\\Programs\\Python\\Python35-32\\lib\\tarfile.py',
   'PYMODULE'),
  ('bz2',
   'C:\\Users\\Judika\\AppData\\Local\\Programs\\Python\\Python35-32\\lib\\bz2.py',
   'PYMODULE'),
  ('_compression',
   'C:\\Users\\Judika\\AppData\\Local\\Programs\\Python\\Python35-32\\lib\\_compression.py',
   'PYMODULE'),
  ('lzma',
   'C:\\Users\\Judika\\AppData\\Local\\Programs\\Python\\Python35-32\\lib\\lzma.py',
   'PYMODULE'),
  ('dummy_threading',
   'C:\\Users\\Judika\\AppData\\Local\\Programs\\Python\\Python35-32\\lib\\dummy_threading.py',
   'PYMODULE'),
  ('py_compile',
   'C:\\Users\\Judika\\AppData\\Local\\Programs\\Python\\Python35-32\\lib\\py_compile.py',
   'PYMODULE'),
  ('zipfile',
   'C:\\Users\\Judika\\AppData\\Local\\Programs\\Python\\Python35-32\\lib\\zipfile.py',
   'PYMODULE'),
  ('shutil',
   'C:\\Users\\Judika\\AppData\\Local\\Programs\\Python\\Python35-32\\lib\\shutil.py',
   'PYMODULE'),
  ('selectors',
   'C:\\Users\\Judika\\AppData\\Local\\Programs\\Python\\Python35-32\\lib\\selectors.py',
   'PYMODULE'),
  ('webbrowser',
   'C:\\Users\\Judika\\AppData\\Local\\Programs\\Python\\Python35-32\\lib\\webbrowser.py',
   'PYMODULE'),
  ('pydoc',
   'C:\\Users\\Judika\\AppData\\Local\\Programs\\Python\\Python35-32\\lib\\pydoc.py',
   'PYMODULE'),
  ('struct',
   'C:\\Users\\Judika\\AppData\\Local\\Programs\\Python\\Python35-32\\lib\\struct.py',
   'PYMODULE'),
  ('token',
   'C:\\Users\\Judika\\AppData\\Local\\Programs\\Python\\Python35-32\\lib\\token.py',
   'PYMODULE'),
  ('tokenize',
   'C:\\Users\\Judika\\AppData\\Local\\Programs\\Python\\Python35-32\\lib\\tokenize.py',
   'PYMODULE'),
  ('gettext',
   'C:\\Users\\Judika\\AppData\\Local\\Programs\\Python\\Python35-32\\lib\\gettext.py',
   'PYMODULE'),
  ('getopt',
   'C:\\Users\\Judika\\AppData\\Local\\Programs\\Python\\Python35-32\\lib\\getopt.py',
   'PYMODULE'),
  ('pdb',
   'C:\\Users\\Judika\\AppData\\Local\\Programs\\Python\\Python35-32\\lib\\pdb.py',
   'PYMODULE'),
  ('unittest.util',
   'C:\\Users\\Judika\\AppData\\Local\\Programs\\Python\\Python35-32\\lib\\unittest\\util.py',
   'PYMODULE'),
  ('unittest.result',
   'C:\\Users\\Judika\\AppData\\Local\\Programs\\Python\\Python35-32\\lib\\unittest\\result.py',
   'PYMODULE'),
  ('string',
   'C:\\Users\\Judika\\AppData\\Local\\Programs\\Python\\Python35-32\\lib\\string.py',
   'PYMODULE'),
  ('_threading_local',
   'C:\\Users\\Judika\\AppData\\Local\\Programs\\Python\\Python35-32\\lib\\_threading_local.py',
   'PYMODULE'),
  ('threading',
   'C:\\Users\\Judika\\AppData\\Local\\Programs\\Python\\Python35-32\\lib\\threading.py',
   'PYMODULE'),
  ('logging',
   'C:\\Users\\Judika\\AppData\\Local\\Programs\\Python\\Python35-32\\lib\\logging\\__init__.py',
   'PYMODULE'),
  ('pprint',
   'C:\\Users\\Judika\\AppData\\Local\\Programs\\Python\\Python35-32\\lib\\pprint.py',
   'PYMODULE'),
  ('contextlib',
   'C:\\Users\\Judika\\AppData\\Local\\Programs\\Python\\Python35-32\\lib\\contextlib.py',
   'PYMODULE'),
  ('unittest.case',
   'C:\\Users\\Judika\\AppData\\Local\\Programs\\Python\\Python35-32\\lib\\unittest\\case.py',
   'PYMODULE'),
  ('unittest.suite',
   'C:\\Users\\Judika\\AppData\\Local\\Programs\\Python\\Python35-32\\lib\\unittest\\suite.py',
   'PYMODULE'),
  ('stat',
   'C:\\Users\\Judika\\AppData\\Local\\Programs\\Python\\Python35-32\\lib\\stat.py',
   'PYMODULE'),
  ('genericpath',
   'C:\\Users\\Judika\\AppData\\Local\\Programs\\Python\\Python35-32\\lib\\genericpath.py',
   'PYMODULE'),
  ('posixpath',
   'C:\\Users\\Judika\\AppData\\Local\\Programs\\Python\\Python35-32\\lib\\posixpath.py',
   'PYMODULE'),
  ('fnmatch',
   'C:\\Users\\Judika\\AppData\\Local\\Programs\\Python\\Python35-32\\lib\\fnmatch.py',
   'PYMODULE'),
  ('unittest.loader',
   'C:\\Users\\Judika\\AppData\\Local\\Programs\\Python\\Python35-32\\lib\\unittest\\loader.py',
   'PYMODULE'),
  ('unittest.runner',
   'C:\\Users\\Judika\\AppData\\Local\\Programs\\Python\\Python35-32\\lib\\unittest\\runner.py',
   'PYMODULE'),
  ('unittest.main',
   'C:\\Users\\Judika\\AppData\\Local\\Programs\\Python\\Python35-32\\lib\\unittest\\main.py',
   'PYMODULE'),
  ('enum',
   'C:\\Users\\Judika\\AppData\\Local\\Programs\\Python\\Python35-32\\lib\\enum.py',
   'PYMODULE'),
  ('signal',
   'C:\\Users\\Judika\\AppData\\Local\\Programs\\Python\\Python35-32\\lib\\signal.py',
   'PYMODULE'),
  ('unittest.signals',
   'C:\\Users\\Judika\\AppData\\Local\\Programs\\Python\\Python35-32\\lib\\unittest\\signals.py',
   'PYMODULE'),
  ('unittest',
   'C:\\Users\\Judika\\AppData\\Local\\Programs\\Python\\Python35-32\\lib\\unittest\\__init__.py',
   'PYMODULE'),
  ('doctest',
   'C:\\Users\\Judika\\AppData\\Local\\Programs\\Python\\Python35-32\\lib\\doctest.py',
   'PYMODULE'),
  ('warnings',
   'C:\\Users\\Judika\\AppData\\Local\\Programs\\Python\\Python35-32\\lib\\warnings.py',
   'PYMODULE'),
  ('copy',
   'C:\\Users\\Judika\\AppData\\Local\\Programs\\Python\\Python35-32\\lib\\copy.py',
   'PYMODULE'),
  ('_dummy_thread',
   'C:\\Users\\Judika\\AppData\\Local\\Programs\\Python\\Python35-32\\lib\\_dummy_thread.py',
   'PYMODULE'),
  ('datetime',
   'C:\\Users\\Judika\\AppData\\Local\\Programs\\Python\\Python35-32\\lib\\datetime.py',
   'PYMODULE'),
  ('random',
   'C:\\Users\\Judika\\AppData\\Local\\Programs\\Python\\Python35-32\\lib\\random.py',
   'PYMODULE'),
  ('socket',
   'C:\\Users\\Judika\\AppData\\Local\\Programs\\Python\\Python35-32\\lib\\socket.py',
   'PYMODULE'),
  ('telepot',
   'C:\\Users\\Judika\\AppData\\Local\\Programs\\Python\\Python35-32\\lib\\site-packages\\telepot\\__init__.py',
   'PYMODULE'),
  ('telepot.api',
   'C:\\Users\\Judika\\AppData\\Local\\Programs\\Python\\Python35-32\\lib\\site-packages\\telepot\\api.py',
   'PYMODULE'),
  ('urllib3',
   'C:\\Users\\Judika\\AppData\\Local\\Programs\\Python\\Python35-32\\lib\\site-packages\\urllib3\\__init__.py',
   'PYMODULE'),
  ('urllib3.util.retry',
   'C:\\Users\\Judika\\AppData\\Local\\Programs\\Python\\Python35-32\\lib\\site-packages\\urllib3\\util\\retry.py',
   'PYMODULE'),
  ('urllib3.util',
   'C:\\Users\\Judika\\AppData\\Local\\Programs\\Python\\Python35-32\\lib\\site-packages\\urllib3\\util\\__init__.py',
   'PYMODULE'),
  ('urllib3.util.ssl_',
   'C:\\Users\\Judika\\AppData\\Local\\Programs\\Python\\Python35-32\\lib\\site-packages\\urllib3\\util\\ssl_.py',
   'PYMODULE'),
  ('hmac',
   'C:\\Users\\Judika\\AppData\\Local\\Programs\\Python\\Python35-32\\lib\\hmac.py',
   'PYMODULE'),
  ('urllib3.util.response',
   'C:\\Users\\Judika\\AppData\\Local\\Programs\\Python\\Python35-32\\lib\\site-packages\\urllib3\\util\\response.py',
   'PYMODULE'),
  ('urllib3.util.connection',
   'C:\\Users\\Judika\\AppData\\Local\\Programs\\Python\\Python35-32\\lib\\site-packages\\urllib3\\util\\connection.py',
   'PYMODULE'),
  ('urllib3.packages.six',
   'C:\\Users\\Judika\\AppData\\Local\\Programs\\Python\\Python35-32\\lib\\site-packages\\urllib3\\packages\\six.py',
   'PYMODULE'),
  ('urllib3.packages',
   'C:\\Users\\Judika\\AppData\\Local\\Programs\\Python\\Python35-32\\lib\\site-packages\\urllib3\\packages\\__init__.py',
   'PYMODULE'),
  ('urllib3.packages.ssl_match_hostname',
   'C:\\Users\\Judika\\AppData\\Local\\Programs\\Python\\Python35-32\\lib\\site-packages\\urllib3\\packages\\ssl_match_hostname\\__init__.py',
   'PYMODULE'),
  ('urllib3.packages.ssl_match_hostname._implementation',
   'C:\\Users\\Judika\\AppData\\Local\\Programs\\Python\\Python35-32\\lib\\site-packages\\urllib3\\packages\\ssl_match_hostname\\_implementation.py',
   'PYMODULE'),
  ('urllib3.util.timeout',
   'C:\\Users\\Judika\\AppData\\Local\\Programs\\Python\\Python35-32\\lib\\site-packages\\urllib3\\util\\timeout.py',
   'PYMODULE'),
  ('urllib3.util.url',
   'C:\\Users\\Judika\\AppData\\Local\\Programs\\Python\\Python35-32\\lib\\site-packages\\urllib3\\util\\url.py',
   'PYMODULE'),
  ('urllib3.util.request',
   'C:\\Users\\Judika\\AppData\\Local\\Programs\\Python\\Python35-32\\lib\\site-packages\\urllib3\\util\\request.py',
   'PYMODULE'),
  ('urllib3.response',
   'C:\\Users\\Judika\\AppData\\Local\\Programs\\Python\\Python35-32\\lib\\site-packages\\urllib3\\response.py',
   'PYMODULE'),
  ('urllib3.connection',
   'C:\\Users\\Judika\\AppData\\Local\\Programs\\Python\\Python35-32\\lib\\site-packages\\urllib3\\connection.py',
   'PYMODULE'),
  ('urllib3._collections',
   'C:\\Users\\Judika\\AppData\\Local\\Programs\\Python\\Python35-32\\lib\\site-packages\\urllib3\\_collections.py',
   'PYMODULE'),
  ('urllib3.packages.ordered_dict',
   'C:\\Users\\Judika\\AppData\\Local\\Programs\\Python\\Python35-32\\lib\\site-packages\\urllib3\\packages\\ordered_dict.py',
   'PYMODULE'),
  ('urllib3.poolmanager',
   'C:\\Users\\Judika\\AppData\\Local\\Programs\\Python\\Python35-32\\lib\\site-packages\\urllib3\\poolmanager.py',
   'PYMODULE'),
  ('urllib3.request',
   'C:\\Users\\Judika\\AppData\\Local\\Programs\\Python\\Python35-32\\lib\\site-packages\\urllib3\\request.py',
   'PYMODULE'),
  ('urllib3.filepost',
   'C:\\Users\\Judika\\AppData\\Local\\Programs\\Python\\Python35-32\\lib\\site-packages\\urllib3\\filepost.py',
   'PYMODULE'),
  ('urllib3.fields',
   'C:\\Users\\Judika\\AppData\\Local\\Programs\\Python\\Python35-32\\lib\\site-packages\\urllib3\\fields.py',
   'PYMODULE'),
  ('uuid',
   'C:\\Users\\Judika\\AppData\\Local\\Programs\\Python\\Python35-32\\lib\\uuid.py',
   'PYMODULE'),
  ('ctypes.util',
   'C:\\Users\\Judika\\AppData\\Local\\Programs\\Python\\Python35-32\\lib\\ctypes\\util.py',
   'PYMODULE'),
  ('ctypes.macholib.dyld',
   'C:\\Users\\Judika\\AppData\\Local\\Programs\\Python\\Python35-32\\lib\\ctypes\\macholib\\dyld.py',
   'PYMODULE'),
  ('ctypes.macholib',
   'C:\\Users\\Judika\\AppData\\Local\\Programs\\Python\\Python35-32\\lib\\ctypes\\macholib\\__init__.py',
   'PYMODULE'),
  ('ctypes.macholib.dylib',
   'C:\\Users\\Judika\\AppData\\Local\\Programs\\Python\\Python35-32\\lib\\ctypes\\macholib\\dylib.py',
   'PYMODULE'),
  ('ctypes.macholib.framework',
   'C:\\Users\\Judika\\AppData\\Local\\Programs\\Python\\Python35-32\\lib\\ctypes\\macholib\\framework.py',
   'PYMODULE'),
  ('netbios',
   'C:\\Users\\Judika\\AppData\\Local\\Programs\\Python\\Python35-32\\lib\\site-packages\\win32\\lib\\netbios.py',
   'PYMODULE'),
  ('urllib3.exceptions',
   'C:\\Users\\Judika\\AppData\\Local\\Programs\\Python\\Python35-32\\lib\\site-packages\\urllib3\\exceptions.py',
   'PYMODULE'),
  ('urllib3.connectionpool',
   'C:\\Users\\Judika\\AppData\\Local\\Programs\\Python\\Python35-32\\lib\\site-packages\\urllib3\\connectionpool.py',
   'PYMODULE'),
  ('telepot.helper',
   'C:\\Users\\Judika\\AppData\\Local\\Programs\\Python\\Python35-32\\lib\\site-packages\\telepot\\helper.py',
   'PYMODULE'),
  ('telepot.filtering',
   'C:\\Users\\Judika\\AppData\\Local\\Programs\\Python\\Python35-32\\lib\\site-packages\\telepot\\filtering.py',
   'PYMODULE'),
  ('telepot.exception',
   'C:\\Users\\Judika\\AppData\\Local\\Programs\\Python\\Python35-32\\lib\\site-packages\\telepot\\exception.py',
   'PYMODULE'),
  ('telepot.hack',
   'C:\\Users\\Judika\\AppData\\Local\\Programs\\Python\\Python35-32\\lib\\site-packages\\telepot\\hack.py',
   'PYMODULE'),
  ('queue',
   'C:\\Users\\Judika\\AppData\\Local\\Programs\\Python\\Python35-32\\lib\\queue.py',
   'PYMODULE'),
  ('json',
   'C:\\Users\\Judika\\AppData\\Local\\Programs\\Python\\Python35-32\\lib\\json\\__init__.py',
   'PYMODULE'),
  ('json.encoder',
   'C:\\Users\\Judika\\AppData\\Local\\Programs\\Python\\Python35-32\\lib\\json\\encoder.py',
   'PYMODULE'),
  ('json.decoder',
   'C:\\Users\\Judika\\AppData\\Local\\Programs\\Python\\Python35-32\\lib\\json\\decoder.py',
   'PYMODULE'),
  ('json.scanner',
   'C:\\Users\\Judika\\AppData\\Local\\Programs\\Python\\Python35-32\\lib\\json\\scanner.py',
   'PYMODULE')],
 [('api-ms-win-crt-math-l1-1-0.dll',
   'C:\\WINDOWS\\system32\\api-ms-win-crt-math-l1-1-0.dll',
   'BINARY'),
  ('api-ms-win-crt-stdio-l1-1-0.dll',
   'C:\\WINDOWS\\system32\\api-ms-win-crt-stdio-l1-1-0.dll',
   'BINARY'),
  ('api-ms-win-crt-locale-l1-1-0.dll',
   'C:\\WINDOWS\\system32\\api-ms-win-crt-locale-l1-1-0.dll',
   'BINARY'),
  ('api-ms-win-crt-heap-l1-1-0.dll',
   'C:\\WINDOWS\\system32\\api-ms-win-crt-heap-l1-1-0.dll',
   'BINARY'),
  ('python35.dll',
   'C:\\Users\\Judika\\AppData\\Local\\Programs\\Python\\Python35-32\\python35.dll',
   'BINARY'),
  ('VCRUNTIME140.dll',
   'C:\\Users\\Judika\\AppData\\Local\\Programs\\Python\\Python35-32\\VCRUNTIME140.dll',
   'BINARY'),
  ('api-ms-win-crt-runtime-l1-1-0.dll',
   'C:\\WINDOWS\\system32\\api-ms-win-crt-runtime-l1-1-0.dll',
   'BINARY'),
  ('ucrtbase.dll', 'C:\\WINDOWS\\system32\\ucrtbase.dll', 'BINARY'),
  ('api-ms-win-crt-environment-l1-1-0.dll',
   'C:\\WINDOWS\\system32\\api-ms-win-crt-environment-l1-1-0.dll',
   'BINARY'),
  ('api-ms-win-crt-filesystem-l1-1-0.dll',
   'C:\\WINDOWS\\system32\\api-ms-win-crt-filesystem-l1-1-0.dll',
   'BINARY'),
  ('api-ms-win-crt-conio-l1-1-0.dll',
   'C:\\WINDOWS\\system32\\api-ms-win-crt-conio-l1-1-0.dll',
   'BINARY'),
  ('api-ms-win-crt-string-l1-1-0.dll',
   'C:\\WINDOWS\\system32\\api-ms-win-crt-string-l1-1-0.dll',
   'BINARY'),
  ('api-ms-win-crt-convert-l1-1-0.dll',
   'C:\\WINDOWS\\system32\\api-ms-win-crt-convert-l1-1-0.dll',
   'BINARY'),
  ('api-ms-win-crt-process-l1-1-0.dll',
   'C:\\WINDOWS\\system32\\api-ms-win-crt-process-l1-1-0.dll',
   'BINARY'),
  ('api-ms-win-crt-time-l1-1-0.dll',
   'C:\\WINDOWS\\system32\\api-ms-win-crt-time-l1-1-0.dll',
   'BINARY'),
  ('api-ms-win-core-datetime-l1-1-0.dll',
   'C:\\WINDOWS\\system32\\api-ms-win-core-datetime-l1-1-0.dll',
   'BINARY'),
  ('api-ms-win-core-processenvironment-l1-1-0.dll',
   'C:\\WINDOWS\\system32\\api-ms-win-core-processenvironment-l1-1-0.dll',
   'BINARY'),
  ('api-ms-win-core-processthreads-l1-1-1.dll',
   'C:\\WINDOWS\\system32\\api-ms-win-core-processthreads-l1-1-1.dll',
   'BINARY'),
  ('api-ms-win-core-file-l1-2-0.dll',
   'C:\\WINDOWS\\system32\\api-ms-win-core-file-l1-2-0.dll',
   'BINARY'),
  ('api-ms-win-core-timezone-l1-1-0.dll',
   'C:\\WINDOWS\\system32\\api-ms-win-core-timezone-l1-1-0.dll',
   'BINARY'),
  ('api-ms-win-core-localization-l1-2-0.dll',
   'C:\\WINDOWS\\system32\\api-ms-win-core-localization-l1-2-0.dll',
   'BINARY'),
  ('api-ms-win-core-libraryloader-l1-1-0.dll',
   'C:\\WINDOWS\\system32\\api-ms-win-core-libraryloader-l1-1-0.dll',
   'BINARY'),
  ('api-ms-win-core-file-l1-1-0.dll',
   'C:\\WINDOWS\\system32\\api-ms-win-core-file-l1-1-0.dll',
   'BINARY'),
  ('api-ms-win-core-console-l1-1-0.dll',
   'C:\\WINDOWS\\system32\\api-ms-win-core-console-l1-1-0.dll',
   'BINARY'),
  ('api-ms-win-core-synch-l1-1-0.dll',
   'C:\\WINDOWS\\system32\\api-ms-win-core-synch-l1-1-0.dll',
   'BINARY'),
  ('api-ms-win-core-interlocked-l1-1-0.dll',
   'C:\\WINDOWS\\system32\\api-ms-win-core-interlocked-l1-1-0.dll',
   'BINARY'),
  ('api-ms-win-core-namedpipe-l1-1-0.dll',
   'C:\\WINDOWS\\system32\\api-ms-win-core-namedpipe-l1-1-0.dll',
   'BINARY'),
  ('api-ms-win-core-file-l2-1-0.dll',
   'C:\\WINDOWS\\system32\\api-ms-win-core-file-l2-1-0.dll',
   'BINARY'),
  ('api-ms-win-core-debug-l1-1-0.dll',
   'C:\\WINDOWS\\system32\\api-ms-win-core-debug-l1-1-0.dll',
   'BINARY'),
  ('api-ms-win-core-synch-l1-2-0.dll',
   'C:\\WINDOWS\\system32\\api-ms-win-core-synch-l1-2-0.dll',
   'BINARY'),
  ('api-ms-win-core-rtlsupport-l1-1-0.dll',
   'C:\\WINDOWS\\system32\\api-ms-win-core-rtlsupport-l1-1-0.dll',
   'BINARY'),
  ('api-ms-win-core-heap-l1-1-0.dll',
   'C:\\WINDOWS\\system32\\api-ms-win-core-heap-l1-1-0.dll',
   'BINARY'),
  ('api-ms-win-core-sysinfo-l1-1-0.dll',
   'C:\\WINDOWS\\system32\\api-ms-win-core-sysinfo-l1-1-0.dll',
   'BINARY'),
  ('api-ms-win-core-profile-l1-1-0.dll',
   'C:\\WINDOWS\\system32\\api-ms-win-core-profile-l1-1-0.dll',
   'BINARY'),
  ('api-ms-win-core-string-l1-1-0.dll',
   'C:\\WINDOWS\\system32\\api-ms-win-core-string-l1-1-0.dll',
   'BINARY'),
  ('api-ms-win-core-handle-l1-1-0.dll',
   'C:\\WINDOWS\\system32\\api-ms-win-core-handle-l1-1-0.dll',
   'BINARY'),
  ('api-ms-win-core-processthreads-l1-1-0.dll',
   'C:\\WINDOWS\\system32\\api-ms-win-core-processthreads-l1-1-0.dll',
   'BINARY'),
  ('api-ms-win-core-util-l1-1-0.dll',
   'C:\\WINDOWS\\system32\\api-ms-win-core-util-l1-1-0.dll',
   'BINARY'),
  ('api-ms-win-core-errorhandling-l1-1-0.dll',
   'C:\\WINDOWS\\system32\\api-ms-win-core-errorhandling-l1-1-0.dll',
   'BINARY'),
  ('api-ms-win-core-memory-l1-1-0.dll',
   'C:\\WINDOWS\\system32\\api-ms-win-core-memory-l1-1-0.dll',
   'BINARY'),
  ('_ssl',
   'C:\\Users\\Judika\\AppData\\Local\\Programs\\Python\\Python35-32\\DLLs\\_ssl.pyd',
   'EXTENSION'),
  ('unicodedata',
   'C:\\Users\\Judika\\AppData\\Local\\Programs\\Python\\Python35-32\\DLLs\\unicodedata.pyd',
   'EXTENSION'),
  ('_ctypes',
   'C:\\Users\\Judika\\AppData\\Local\\Programs\\Python\\Python35-32\\DLLs\\_ctypes.pyd',
   'EXTENSION'),
  ('pyexpat',
   'C:\\Users\\Judika\\AppData\\Local\\Programs\\Python\\Python35-32\\DLLs\\pyexpat.pyd',
   'EXTENSION'),
  ('_hashlib',
   'C:\\Users\\Judika\\AppData\\Local\\Programs\\Python\\Python35-32\\DLLs\\_hashlib.pyd',
   'EXTENSION'),
  ('select',
   'C:\\Users\\Judika\\AppData\\Local\\Programs\\Python\\Python35-32\\DLLs\\select.pyd',
   'EXTENSION'),
  ('_bz2',
   'C:\\Users\\Judika\\AppData\\Local\\Programs\\Python\\Python35-32\\DLLs\\_bz2.pyd',
   'EXTENSION'),
  ('_lzma',
   'C:\\Users\\Judika\\AppData\\Local\\Programs\\Python\\Python35-32\\DLLs\\_lzma.pyd',
   'EXTENSION'),
  ('_socket',
   'C:\\Users\\Judika\\AppData\\Local\\Programs\\Python\\Python35-32\\DLLs\\_socket.pyd',
   'EXTENSION'),
  ('win32wnet',
   'C:\\Users\\Judika\\AppData\\Local\\Programs\\Python\\Python35-32\\lib\\site-packages\\win32\\win32wnet.pyd',
   'EXTENSION'),
  ('api-ms-win-crt-utility-l1-1-0.dll',
   'C:\\WINDOWS\\system32\\api-ms-win-crt-utility-l1-1-0.dll',
   'BINARY'),
  ('pywintypes35.dll',
   'C:\\Users\\Judika\\AppData\\Local\\Programs\\Python\\Python35-32\\lib\\site-packages\\pypiwin32_system32\\pywintypes35.dll',
   'BINARY'),
  ('MSVCR100.dll', 'C:\\WINDOWS\\system32\\msvcr100.dll', 'BINARY')],
 [],
 [],
 [('base_library.zip',
   'C:\\Users\\Judika\\Documents\\absentiebot\\build\\bot\\base_library.zip',
   'DATA')],
 [])
